{
  "matches" : [
  {"team1":"Costa Rica","team2":"Inghilterra", "goalScoredTeam1":"0", "goalScoredTeam2":"0"},
  {"team1":"Italia","team2":"Uruguay", "goalScoredTeam1":"0", "goalScoredTeam2":"1"},
  {"team1":"Grecia","team2":"Costa D'Avorio", "goalScoredTeam1":"2", "goalScoredTeam2":"1"},
  {"team1":"Giappone","team2":"Colombia", "goalScoredTeam1":"1", "goalScoredTeam2":"4"}]
}